index;2007;2009;2009-2;2011;2013;2015;mean-ah;std-ah
0;1.74428394676;-0.471127034729;-2.23673531199;0.776815552261;1.12734780291;-1.65784034742;-0.119542565367;1.46085132512
1;0.123785008666;-0.399751123942;-1.49993739409;0.472471746344;0.597752942947;-0.651078165666;-0.22612616429;0.721408175294
2;0.281085731343;-0.0113682996114;0.701281297453;0.919154618326;0.616700645574;-0.513176388853;0.332279600705;0.482526405358
3;0.58973224585;-0.0682927688408;1.89447034382;0.558329147978;-0.248246392226;-0.924765753929;0.300204470442;0.878377194189
4;0.766292668369;-0.296976207226;1.67456275205;0.039753495404;0.951699093138;-0.305081670594;0.471708355189;0.723981287473
5;0.828811040106;-0.340124313933;1.90873749809;-1.33049725755;0.961377758643;1.37952214128;0.567971144439;1.08841591971
6;1.6201627273;-0.314512074406;1.75024465374;-1.83668547222;2.20605484099;0.347208076519;0.628745458655;1.40094737463
7;1.48259135286;0.0255735613828;1.97448551879;-1.3219673024;1.20871056284;-0.286796705454;0.513766164671;1.14049852275
8;2.31271437272;0.0492892133497;1.98978927728;-0.8224165154;1.28037731176;-0.521113538929;0.714773353464;1.21327567554
9;1.93244716084;-0.245020234304;2.04265002437;0.161474808146;1.14673884129;0.0456081738034;0.847316462356;0.913080786104
10;1.19288871562;-0.134134040002;1.56041172394;0.47735820282;1.28994031001;0.573536845363;0.826666959625;0.576823481681
11;1.20820985496;0.475392179252;0.604878265672;0.0366513496255;0.820874879733;1.36129867126;0.751217533417;0.44609280815
12;0.987978609142;0.785872075384;-0.126085728397;0.0193882202101;0.673264638838;2.95720315365;0.882936828137;1.01084463659
13;1.4283260949;1.68103328324;0.349954696315;-0.577207855021;0.728765946725;0.548776566506;0.693274788777;0.738252605665
14;0.436151345582;0.945904135183;1.49594845673;-0.970984742794;0.171999129459;-0.385055618098;0.282327117677;0.812940722157
15;0.740327610963;0.826699084132;0.0564077232601;-1.08092219742;0.633146164301;-0.196525878866;0.163188751062;0.668680797164
16;1.27389838855;-0.0884921146929;0.186980636431;-0.737911587836;0.431617221792;1.16900041738;0.372515493605;0.698852854412
17;1.93042694491;-0.0830526928062;-0.00796823196408;0.448251734491;0.257361946148;0.823683104483;0.561450467544;0.681636304847
18;3.04090344441;-1.46061784012;-1.31831274007;1.79864416959;1.46469006948;1.01152251921;0.756138270415;1.63766051962
19;2.05343853285;-1.27070010131;-1.48448946474;1.81268087105;1.87139044172;0.535291625759;0.586268650888;1.47462894716
20;0.510156117814;-1.34565362399;-1.24950118457;1.37968612953;1.17811035838;0.171486388755;0.107380697653;1.07113630313
21;0.000276367974643;-1.13865435711;-0.311784511406;0.595867084547;0.877559506048;-0.0858385149822;-0.010429070822;0.648797262832
22;-0.472968882413;-0.954857967263;1.22065762414;0.659328489762;0.527824685771;0.23778706459;0.202961835764;0.724356374133
23;-1.34860239703;-0.612624537309;1.86593442082;1.17951306205;-0.00791585886262;-0.164974199489;0.151888415029;1.07671244838
24;-1.64680122137;-0.000431725461603;2.79357184244;2.82362736339;0.488261588739;-0.249144913573;0.70151382236;1.62463392207
25;-1.67355968995;-0.649401720313;2.23655219393;2.31276644983;0.396406830554;-0.27646789588;0.391049361363;1.46569859637
26;-0.946077255303;-1.35683806524;1.84061680034;1.5290132564;0.0419547317691;-0.173169643161;0.155916637468;1.17952754596
27;-0.476600304177;-1.27874493166;-0.196810732959;0.535956996111;-0.0456837768872;-0.20554474379;-0.277904582227;0.543027120978
28;-0.172927766621;-1.26167141607;-1.4082571007;0.22941832267;-0.161787027391;-0.143973356185;-0.486533057383;0.617003035786
29;-0.194829271341;-1.19598435837;-2.20720197308;1.02741179981;-0.32042902677;0.286608757294;-0.434070678743;1.03681947986
30;-0.0433520702402;-1.51925817093;-3.43137436618;0.304827287784;-1.00340261208;-0.111314823455;-0.967312459183;1.26374588281
31;0.41334469367;-1.63854286104;-4.12992902768;-0.461686368173;-0.874622033623;0.660205579395;-1.00520500291;1.59495857527
32;0.385411802127;-1.43326162582;-3.28439201727;-1.12570401432;-1.22427534449;-0.0417914460669;-1.12066877431;1.17064278854
33;0.309264156209;-1.41864947512;-1.87722277936;-1.64135300586;-1.14390420038;0.0894500414043;-0.947069210517;0.842723095809
34;-0.151312914364;-1.45753989982;-1.80571707308;-1.76298512281;-0.612840185652;-0.0444070446158;-0.972467040057;0.732511781892
35;0.0298794910765;-1.21698976796;-2.30867717832;-1.07750948234;-0.256884076059;-0.0885184836674;-0.819783249546;0.817978338203
36;0.261509550297;-0.907857948982;-1.97460145606;-0.42360512707;-0.0891198649219;-0.617726721185;-0.625233594655;0.7088854961
37;0.405292437129;-0.694396649555;-1.14574881333;0.236398947701;-0.223706757771;-1.18376761486;-0.434321408447;0.623780602011
38;0.783233224054;0.0881813110305;-0.318339265123;0.261349241471;-0.581827194569;-1.37450092064;-0.190317267296;0.68329169374
39;0.327895968484;-0.215804365902;0.253554661974;-0.496794161447;-1.00210017139;-1.45630334682;-0.431591902516;0.641947098741
40;0.528172711572;-0.330887536604;0.553512151405;-0.784291226691;-1.07484100618;-1.74613774944;-0.475745442656;0.832287938604
41;1.28183008557;0.319684448488;1.43526692536;-1.26406117738;-0.450163319844;-1.19312470682;0.0215720425624;1.08216833137
42;1.33585411269;1.12467433013;0.975310339048;-1.06296065804;0.723091536058;-1.23376986083;0.310366633176;1.04861805362
43;0.818829268133;0.871298848878;-0.0540218701948;-0.986113003887;0.870764481847;-0.446422368843;0.179055892656;0.726881227275
44;0.555506894406;0.555995051887;-0.0859764086133;-1.14278498935;2.84865396359;-0.272289415069;0.409850849474;1.23235360855
45;0.897502560039;0.0333100017633;-0.126234368123;-0.699392019544;1.05443697659;-0.112722794971;0.174483392626;0.61285965692
46;0.167421785405;0.571179248661;0.0785166361548;0.225480559333;2.38124262604;-0.181935212612;0.540317607164;0.852744617799
47;-0.0295360702946;0.00862186248778;-0.358511104507;0.232104398624;0.960085321983;-0.0358460372976;0.129486395166;0.409430047862
48;0.236244175107;-0.1700198528;-0.0812397690141;0.100327121487;-0.281740588083;-0.293124561624;-0.0815922458211;0.194396284312
49;0.904008110764;-0.124858497316;0.540189217926;-0.467806267929;0.597204905617;-0.142479696961;0.217709628684;0.489223308413
50;0.652895219947;-0.18789699869;-0.665696758054;-0.223054823191;0.654495729918;-0.138188569985;0.0154256333242;0.483134922245
51;0.521138698065;-0.691790791158;-0.0950675317846;0.260573128479;-0.238803005055;-0.418589895516;-0.110423232828;0.405417658306
52;0.727107792166;-0.338962065286;-0.696328928011;0.407778255267;-0.350796786697;-0.252568036612;-0.0839616281955;0.489777121625
53;0.948393480429;-0.500771562207;-0.368334072294;0.396736604256;-0.443476183073;-0.466787316192;-0.0723731748469;0.551728577305
54;1.06804171534;-0.918884407112;-0.452007749071;0.429096838053;-1.00448030563;0.307943592985;-0.0950483859051;0.755325705449
55;0.66533693734;-0.867666157811;-0.423014171249;1.07585924131;-1.30063456783;0.290703875428;-0.0932358071359;0.842212703301
56;0.745265091311;-0.472079055404;-0.671895151219;0.757740124192;-1.10581102497;0.394523550347;-0.0587094109579;0.725910688497
57;0.314393453931;0.0518359152158;-0.695919769417;1.04642747826;-1.03362874776;0.150655726473;-0.0277059905487;0.679132388094
58;1.69814395628;0.484025516392;-0.505587418625;0.975573768093;-1.40673792148;0.0887033636229;0.222353544047;1.00128831069
59;1.1600459099;0.301875130953;-0.0791698424727;0.747326455885;-1.16165495216;-0.579611455999;0.0648018743514;0.781216548476
60;0.411677491182;0.514294325315;0.759922713061;0.506762659846;0.329752731416;0.20050197769;0.453818649752;0.173924139975
61;1.13903589109;0.58593184644;1.24923414011;0.513241141714;0.484622184198;0.155359765413;0.687904161494;0.383936583728
62;0.179933698926;0.112613218404;1.1649201503;0.45762914889;0.0878242727052;0.922086354114;0.487501140557;0.417039854714
63;0.829516332814;-0.39807914299;2.35693292637;0.135887900264;-0.294971728319;1.17844512221;0.634621901724;0.95563540546
64;0.693454519692;0.953999128863;2.4151480694;-0.570419277973;-0.206636889443;-0.655790131759;0.438292569796;1.07000538154
65;1.79952057829;-0.296596977446;2.20141945515;-1.35012074851;-0.335185538192;-0.0393271508469;0.329951603073;1.25538874055
66;0.798709261109;-0.668554570596;1.17846158978;-0.354717906815;-1.22410907031;-0.625043038294;-0.149208955854;0.851962455191
67;0.200828936126;-0.69604165252;0.841291331391;0.695058511;-1.52640427862;-0.722923459424;-0.201365102009;0.849011641633
68;-0.277977213802;-0.457335838131;0.914811835992;0.386268786684;-1.50486444499;-0.501290114353;-0.2400644981;0.757477685933
69;-0.716480031439;-1.10860562496;1.17000004828;1.29575981886;-1.21320537294;-0.00107971437536;-0.095601812763;1.01712617141
70;-0.334975580036;-0.54331289972;1.00096855953;0.541296975118;-1.3215940663;0.276301976425;-0.0635525058305;0.763878060831
