;threshold;n;mean;std;t-statistic;H5;H1
0;1.0;3727;0.0347296467972;0.786459996262;7.81916487235;False;False
1;2.0;2974;-0.000422121233122;0.761835522954;4.69425445923;False;False
2;3.0;2447;-0.0240177359401;0.733703662377;2.83049344647;False;False
3;4.0;2131;-0.0174194399053;0.705083314309;3.18063479115;False;False
4;5.0;1868;-0.0206462619943;0.683762063661;2.86679422674;False;False
5;6.0;1630;-0.0398832505627;0.658937443228;1.60017963227;False;False
