;threshold;n;mean;std;t-statistic;H5;H1
0;1.0;3727;0.0139398398232;1.06789684742;4.56997333121;False;False
1;2.0;2974;-0.0844356776137;1.06363050854;-0.945232838638;False;False
2;3.0;2447;-0.0971788070023;1.04567506405;-1.47495824785;False;False
3;4.0;2131;-0.108011999693;1.02694844901;-1.88849759099;True;False
4;5.0;1868;-0.0919629833203;1.0267856135;-1.09285679078;False;False
5;6.0;1630;-0.129977426607;1.03207189821;-2.50271050452;True;True
